systemc/mp3/mp3/wave1.vcd
$date
     Mar 22, 2020       14:54:39
$end

$version
 SystemC 2.3.1-Accellera --- Mar  1 2020 18:17:32
$end

$timescale
     1 ps
$end

$scope module SystemC $end
$var wire    1  aaaaa  i_a        $end
$var wire    1  aaaab  i_b        $end
$var wire    1  aaaac  i_ci       $end
$var wire    1  aaaad  o_co       $end
$var wire    1  aaaae  o_s        $end
$upscope $end
$enddefinitions  $end

$comment
All initial values are dumped below at time 0 sec = 0 timescale units.
$end

$dumpvars
0aaaaa
0aaaab
0aaaac
0aaaad
0aaaae
$end

#10000
1aaaaa
1aaaae

#20000
0aaaaa
1aaaab

#30000
1aaaaa
1aaaad
0aaaae

#40000
0aaaaa
0aaaab
1aaaac
0aaaad
1aaaae

#50000
1aaaaa
1aaaad
0aaaae

#60000
0aaaaa
1aaaab

#70000
1aaaaa
1aaaae

#80000
0aaaaa
0aaaab
0aaaac
0aaaad
0aaaae

#90000
1aaaaa
1aaaae

